EESchema Schematic File Version 2
LIBS:testboard_RD53-rescue
LIBS:power
LIBS:device
LIBS:transistors
LIBS:conn
LIBS:linear
LIBS:regul
LIBS:74xx
LIBS:cmos4000
LIBS:adc-dac
LIBS:memory
LIBS:xilinx
LIBS:microcontrollers
LIBS:dsp
LIBS:microchip
LIBS:analog_switches
LIBS:motorola
LIBS:texas
LIBS:intel
LIBS:audio
LIBS:interface
LIBS:digital-audio
LIBS:philips
LIBS:display
LIBS:cypress
LIBS:siliconi
LIBS:opto
LIBS:atmel
LIBS:contrib
LIBS:valves
LIBS:modules
LIBS:molex
LIBS:data_header
LIBS:displayport
LIBS:ttc_header
LIBS:connsingle
LIBS:solder_pad
LIBS:testboard_RD53-cache
EELAYER 25 0
EELAYER END
$Descr USLetter 8500 11000 portrait
encoding utf-8
Sheet 1 1
Title "Testboard for RD53a single chip flex"
Date "2018-01-28"
Rev "ver1"
Comp "LBNL"
Comment1 ""
Comment2 ""
Comment3 ""
Comment4 ""
$EndDescr
$Comp
L ConnSingle J_conn1
U 1 1 5A6944F5
P 3850 5000
F 0 "J_conn1" H 3900 7450 60  0000 C CNN
F 1 "ConnSingle" H 3950 7350 60  0000 C CNN
F 2 "library:connector" H 3850 4500 60  0001 C CNN
F 3 "" H 3850 4500 60  0001 C CNN
	1    3850 5000
	1    0    0    -1  
$EndComp
$Comp
L GND #PWR01
U 1 1 5A6A30C6
P 4700 8400
F 0 "#PWR01" H 4700 8150 50  0001 C CNN
F 1 "GND" H 4700 8250 50  0000 C CNN
F 2 "" H 4700 8400 50  0001 C CNN
F 3 "" H 4700 8400 50  0001 C CNN
	1    4700 8400
	1    0    0    -1  
$EndComp
$Comp
L Solder_Pad U10
U 1 1 5A6A31A5
P 3100 8100
F 0 "U10" H 3150 8250 59  0000 C CNN
F 1 "Solder_Pad" H 3150 8350 59  0000 C CNN
F 2 "library:Power_Pad" H 3950 8500 59  0001 C CNN
F 3 "" H 3950 8500 59  0001 C CNN
	1    3100 8100
	-1   0    0    -1  
$EndComp
$Comp
L Solder_Pad U11
U 1 1 5A6A31F0
P 4950 8100
F 0 "U11" H 5000 8250 59  0000 C CNN
F 1 "Solder_Pad" H 5000 8350 59  0000 C CNN
F 2 "library:Power_Pad" H 5800 8500 59  0001 C CNN
F 3 "" H 5800 8500 59  0001 C CNN
	1    4950 8100
	1    0    0    -1  
$EndComp
$Comp
L LEMO2 J1
U 1 1 5A6A3761
P 6500 8400
F 0 "J1" H 6500 8600 50  0000 C CNN
F 1 "LEMO2" H 6500 8200 50  0000 C CNN
F 2 "library:lemo_epb00250ntn" H 6500 8400 50  0001 C CNN
F 3 "" H 6500 8400 50  0001 C CNN
	1    6500 8400
	1    0    0    -1  
$EndComp
$Comp
L DisplayPort-RESCUE-testboard_RD53 DP1
U 1 1 5A6A3CB6
P 3850 1600
F 0 "DP1" H 3950 1300 60  0000 C CNN
F 1 "DisplayPort" H 3950 2550 60  0000 C CNN
F 2 "library:DisplayPort" H 3950 1550 60  0001 C CNN
F 3 "" H 3950 1550 60  0001 C CNN
	1    3850 1600
	1    0    0    -1  
$EndComp
$Comp
L data_header U1
U 1 1 5A6A4091
P 6450 700
F 0 "U1" H 7100 200 60  0000 C CNN
F 1 "GTX_1" H 7100 300 60  0000 C CNN
F 2 "library:data_header" H 6450 700 60  0001 C CNN
F 3 "" H 6450 700 60  0001 C CNN
	1    6450 700 
	1    0    0    -1  
$EndComp
$Comp
L data_header U2
U 1 1 5A6A449C
P 6450 1250
F 0 "U2" H 7100 750 60  0000 C CNN
F 1 "GTX_2" H 7100 850 60  0000 C CNN
F 2 "library:data_header" H 6450 1250 60  0001 C CNN
F 3 "" H 6450 1250 60  0001 C CNN
	1    6450 1250
	1    0    0    -1  
$EndComp
$Comp
L data_header U3
U 1 1 5A6A4523
P 6450 1850
F 0 "U3" H 7100 1350 60  0000 C CNN
F 1 "GTX_3" H 7100 1450 60  0000 C CNN
F 2 "library:data_header" H 6450 1850 60  0001 C CNN
F 3 "" H 6450 1850 60  0001 C CNN
	1    6450 1850
	1    0    0    -1  
$EndComp
$Comp
L data_header U4
U 1 1 5A6A461F
P 6450 2450
F 0 "U4" H 7100 1950 60  0000 C CNN
F 1 "GTX_4" H 7100 2050 60  0000 C CNN
F 2 "library:data_header" H 6450 2450 60  0001 C CNN
F 3 "" H 6450 2450 60  0001 C CNN
	1    6450 2450
	1    0    0    -1  
$EndComp
$Comp
L data_header U7
U 1 1 5A6A4766
P 6600 4200
F 0 "U7" H 7250 3700 60  0000 C CNN
F 1 "CLK" H 7250 3800 60  0000 C CNN
F 2 "library:data_header" H 6600 4200 60  0001 C CNN
F 3 "" H 6600 4200 60  0001 C CNN
	1    6600 4200
	1    0    0    -1  
$EndComp
$Comp
L molex M1
U 1 1 5A6A5B43
P 3950 8100
F 0 "M1" H 3940 8270 60  0000 C CNN
F 1 "molex" H 3949 7935 60  0000 C CNN
F 2 "library:molex" H 4250 8450 60  0001 C CNN
F 3 "" H 4250 8450 60  0001 C CNN
	1    3950 8100
	1    0    0    -1  
$EndComp
Text Label 4400 8150 0    60   ~ 0
GND
Text Label 4400 8050 0    60   ~ 0
GND
Text Label 3400 8050 0    60   ~ 0
Vin
Text Label 3400 8150 0    60   ~ 0
Vin
NoConn ~ 4600 5900
NoConn ~ 4600 5500
NoConn ~ 4600 5300
NoConn ~ 4600 5100
NoConn ~ 3300 5000
NoConn ~ 3300 5200
NoConn ~ 3300 5400
NoConn ~ 3300 5600
NoConn ~ 3300 5800
NoConn ~ 4550 1650
Text Label 5900 8350 0    60   ~ 0
HV
Text Label 5900 8450 0    60   ~ 0
HV_Ret
$Comp
L data_header U6
U 1 1 5A6AF179
P 6600 3650
F 0 "U6" H 7250 3150 60  0000 C CNN
F 1 "CMD" H 7250 3250 60  0000 C CNN
F 2 "library:data_header" H 6600 3650 60  0001 C CNN
F 3 "" H 6600 3650 60  0001 C CNN
	1    6600 3650
	1    0    0    -1  
$EndComp
$Comp
L data_header U9
U 1 1 5A6AF1BF
P 1900 6600
F 0 "U9" H 2550 6100 60  0000 C CNN
F 1 "NTC" H 2550 6200 60  0000 C CNN
F 2 "library:data_header" H 1900 6600 60  0001 C CNN
F 3 "" H 1900 6600 60  0001 C CNN
	1    1900 6600
	-1   0    0    -1  
$EndComp
$Comp
L data_header U8
U 1 1 5A6AF27A
P 6600 4750
F 0 "U8" H 7250 4250 60  0000 C CNN
F 1 "EXT_SER_CLK" H 7250 4350 60  0000 C CNN
F 2 "library:data_header" H 6600 4750 60  0001 C CNN
F 3 "" H 6600 4750 60  0001 C CNN
	1    6600 4750
	1    0    0    -1  
$EndComp
$Comp
L C C9
U 1 1 5A6B2800
P 1000 3700
F 0 "C9" H 1025 3800 50  0000 L CNN
F 1 "C" H 1025 3600 50  0000 L CNN
F 2 "Capacitors_SMD:C_0402" H 1038 3550 50  0001 C CNN
F 3 "" H 1000 3700 50  0001 C CNN
	1    1000 3700
	1    0    0    -1  
$EndComp
$Comp
L R R3
U 1 1 5A6B2880
P 1250 3700
F 0 "R3" V 1330 3700 50  0000 C CNN
F 1 "R" V 1250 3700 50  0000 C CNN
F 2 "Resistors_SMD:R_0402" V 1180 3700 50  0001 C CNN
F 3 "" H 1250 3700 50  0001 C CNN
	1    1250 3700
	1    0    0    -1  
$EndComp
$Comp
L GND #PWR02
U 1 1 5A6B28F6
P 1100 4150
F 0 "#PWR02" H 1100 3900 50  0001 C CNN
F 1 "GND" H 1100 4000 50  0000 C CNN
F 2 "" H 1100 4150 50  0001 C CNN
F 3 "" H 1100 4150 50  0001 C CNN
	1    1100 4150
	1    0    0    -1  
$EndComp
$Comp
L C C1
U 1 1 5A6B2A42
P 6350 1300
F 0 "C1" H 6375 1400 50  0000 L CNN
F 1 "C" H 6375 1200 50  0000 L CNN
F 2 "Capacitors_SMD:C_0402" H 6388 1150 50  0001 C CNN
F 3 "" H 6350 1300 50  0001 C CNN
	1    6350 1300
	0    1    1    0   
$EndComp
$Comp
L C C2
U 1 1 5A6B2AEF
P 6100 1400
F 0 "C2" H 6125 1500 50  0000 L CNN
F 1 "C" H 6125 1300 50  0000 L CNN
F 2 "Capacitors_SMD:C_0402" H 6138 1250 50  0001 C CNN
F 3 "" H 6100 1400 50  0001 C CNN
	1    6100 1400
	0    1    1    0   
$EndComp
$Comp
L C C3
U 1 1 5A6B3045
P 6350 1850
F 0 "C3" H 6375 1950 50  0000 L CNN
F 1 "C" H 6375 1750 50  0000 L CNN
F 2 "Capacitors_SMD:C_0402" H 6388 1700 50  0001 C CNN
F 3 "" H 6350 1850 50  0001 C CNN
	1    6350 1850
	0    1    1    0   
$EndComp
$Comp
L C C4
U 1 1 5A6B304B
P 6100 1950
F 0 "C4" H 6125 2050 50  0000 L CNN
F 1 "C" H 6125 1850 50  0000 L CNN
F 2 "Capacitors_SMD:C_0402" H 6138 1800 50  0001 C CNN
F 3 "" H 6100 1950 50  0001 C CNN
	1    6100 1950
	0    1    1    0   
$EndComp
$Comp
L C C5
U 1 1 5A6B30A7
P 6350 2450
F 0 "C5" H 6375 2550 50  0000 L CNN
F 1 "C" H 6375 2350 50  0000 L CNN
F 2 "Capacitors_SMD:C_0402" H 6388 2300 50  0001 C CNN
F 3 "" H 6350 2450 50  0001 C CNN
	1    6350 2450
	0    1    1    0   
$EndComp
$Comp
L C C6
U 1 1 5A6B30AD
P 6100 2550
F 0 "C6" H 6125 2650 50  0000 L CNN
F 1 "C" H 6125 2450 50  0000 L CNN
F 2 "Capacitors_SMD:C_0402" H 6138 2400 50  0001 C CNN
F 3 "" H 6100 2550 50  0001 C CNN
	1    6100 2550
	0    1    1    0   
$EndComp
$Comp
L C C7
U 1 1 5A6B310D
P 6350 3050
F 0 "C7" H 6375 3150 50  0000 L CNN
F 1 "C" H 6375 2950 50  0000 L CNN
F 2 "Capacitors_SMD:C_0402" H 6388 2900 50  0001 C CNN
F 3 "" H 6350 3050 50  0001 C CNN
	1    6350 3050
	0    1    1    0   
$EndComp
$Comp
L C C8
U 1 1 5A6B3113
P 6100 3150
F 0 "C8" H 6125 3250 50  0000 L CNN
F 1 "C" H 6125 3050 50  0000 L CNN
F 2 "Capacitors_SMD:C_0402" H 6138 3000 50  0001 C CNN
F 3 "" H 6100 3150 50  0001 C CNN
	1    6100 3150
	0    1    1    0   
$EndComp
$Comp
L C C12
U 1 1 5A6B3649
P 6450 4800
F 0 "C12" H 6475 4900 50  0000 L CNN
F 1 "C" H 6475 4700 50  0000 L CNN
F 2 "Capacitors_SMD:C_0402" H 6488 4650 50  0001 C CNN
F 3 "" H 6450 4800 50  0001 C CNN
	1    6450 4800
	0    1    1    0   
$EndComp
$Comp
L C C13
U 1 1 5A6B364F
P 6200 4900
F 0 "C13" H 6225 5000 50  0000 L CNN
F 1 "C" H 6225 4800 50  0000 L CNN
F 2 "Capacitors_SMD:C_0402" H 6238 4750 50  0001 C CNN
F 3 "" H 6200 4900 50  0001 C CNN
	1    6200 4900
	0    1    1    0   
$EndComp
$Comp
L C C10
U 1 1 5A6B36BB
P 6450 4250
F 0 "C10" H 6475 4350 50  0000 L CNN
F 1 "C" H 6475 4150 50  0000 L CNN
F 2 "Capacitors_SMD:C_0402" H 6488 4100 50  0001 C CNN
F 3 "" H 6450 4250 50  0001 C CNN
	1    6450 4250
	0    1    1    0   
$EndComp
$Comp
L C C11
U 1 1 5A6B36C1
P 6200 4350
F 0 "C11" H 6225 4450 50  0000 L CNN
F 1 "C" H 6225 4250 50  0000 L CNN
F 2 "Capacitors_SMD:C_0402" H 6238 4200 50  0001 C CNN
F 3 "" H 6200 4350 50  0001 C CNN
	1    6200 4350
	0    1    1    0   
$EndComp
$Comp
L C C14
U 1 1 5A6B372F
P 6450 5350
F 0 "C14" H 6475 5450 50  0000 L CNN
F 1 "C" H 6475 5250 50  0000 L CNN
F 2 "Capacitors_SMD:C_0402" H 6488 5200 50  0001 C CNN
F 3 "" H 6450 5350 50  0001 C CNN
	1    6450 5350
	0    1    1    0   
$EndComp
$Comp
L C C15
U 1 1 5A6B3735
P 6200 5450
F 0 "C15" H 6225 5550 50  0000 L CNN
F 1 "C" H 6225 5350 50  0000 L CNN
F 2 "Capacitors_SMD:C_0402" H 6238 5300 50  0001 C CNN
F 3 "" H 6200 5450 50  0001 C CNN
	1    6200 5450
	0    1    1    0   
$EndComp
Text Label 1100 750  0    60   ~ 0
FGND
Wire Wire Line
	5350 2550 5950 2550
Wire Wire Line
	5650 550  5650 2550
Wire Wire Line
	3200 550  5650 550 
Wire Wire Line
	3200 1200 3200 550 
Wire Wire Line
	3350 1200 3200 1200
Wire Wire Line
	5700 2450 6200 2450
Wire Wire Line
	5700 600  5700 2450
Wire Wire Line
	3250 600  5700 600 
Wire Wire Line
	3250 1100 3250 600 
Wire Wire Line
	3350 1100 3250 1100
Wire Wire Line
	5750 1950 5950 1950
Wire Wire Line
	5750 1050 5750 1950
Wire Wire Line
	4550 1050 5750 1050
Wire Wire Line
	2950 1850 6200 1850
Wire Wire Line
	5800 950  5800 1850
Wire Wire Line
	4550 950  5800 950 
Wire Wire Line
	5900 1400 5950 1400
Wire Wire Line
	5900 650  5900 1400
Wire Wire Line
	3300 650  5900 650 
Wire Wire Line
	3300 900  3300 650 
Wire Wire Line
	3350 900  3300 900 
Wire Wire Line
	5850 1300 6200 1300
Wire Wire Line
	5850 700  5850 1300
Wire Wire Line
	3350 700  5850 700 
Wire Wire Line
	3350 800  3350 700 
Wire Wire Line
	2150 7300 2150 4800
Wire Wire Line
	2150 4800 3300 4800
Wire Wire Line
	4900 7200 4900 4900
Wire Wire Line
	4900 4900 4600 4900
Wire Wire Line
	1600 7300 2150 7300
Wire Wire Line
	1600 7200 4900 7200
Wire Wire Line
	6500 1300 6750 1300
Wire Wire Line
	6250 1400 6750 1400
Wire Wire Line
	6500 1850 6750 1850
Wire Wire Line
	6250 1950 6750 1950
Wire Wire Line
	6500 2450 6750 2450
Wire Wire Line
	6250 2550 6750 2550
Wire Wire Line
	6500 3050 6750 3050
Wire Wire Line
	6250 3150 6750 3150
Wire Wire Line
	5450 4350 6050 4350
Wire Wire Line
	5450 4100 5450 4350
Wire Wire Line
	4600 4100 5450 4100
Wire Wire Line
	5200 4900 6050 4900
Wire Wire Line
	5200 4300 5200 4900
Wire Wire Line
	4600 4300 5200 4300
Wire Wire Line
	6050 5350 6300 5350
Wire Wire Line
	6050 6300 6050 5350
Wire Wire Line
	3000 6300 6050 6300
Wire Wire Line
	3000 4600 3000 6300
Wire Wire Line
	3300 4600 3000 4600
Wire Wire Line
	5000 5450 6050 5450
Wire Wire Line
	5000 4700 5000 5450
Wire Wire Line
	4600 4700 5000 4700
Wire Wire Line
	6600 4800 6900 4800
Wire Wire Line
	6350 4900 6900 4900
Wire Wire Line
	6600 4250 6900 4250
Wire Wire Line
	6350 4350 6900 4350
Wire Wire Line
	6900 5450 6350 5450
Wire Wire Line
	6600 5350 6900 5350
Connection ~ 2450 4200
Wire Wire Line
	3300 4200 2450 4200
Connection ~ 2450 3600
Wire Wire Line
	3300 3600 2450 3600
Wire Wire Line
	2450 3000 3300 3000
Wire Wire Line
	2450 3000 2450 8300
Connection ~ 5550 4500
Wire Wire Line
	4600 4500 5550 4500
Connection ~ 5550 3900
Wire Wire Line
	4600 3900 5550 3900
Connection ~ 4700 8300
Wire Wire Line
	5550 3300 4600 3300
Wire Wire Line
	5550 8300 5550 3300
Wire Wire Line
	2450 8300 5550 8300
Connection ~ 4800 500 
Wire Wire Line
	4850 500  4850 1550
Wire Wire Line
	4850 1550 4550 1550
Connection ~ 4750 500 
Wire Wire Line
	4800 1150 4800 500 
Wire Wire Line
	4550 1150 4800 1150
Connection ~ 3100 500 
Wire Wire Line
	3100 1300 3100 500 
Connection ~ 3150 500 
Wire Wire Line
	3150 1000 3150 500 
Wire Wire Line
	3350 1000 3150 1000
Wire Wire Line
	1100 500  4850 500 
Wire Wire Line
	4750 850  4750 500 
Wire Wire Line
	4550 850  4750 850 
Wire Wire Line
	3100 1300 3350 1300
Connection ~ 1100 3550
Wire Wire Line
	1100 500  1100 3550
Wire Wire Line
	1000 3550 1250 3550
Connection ~ 1100 3850
Wire Wire Line
	1100 4150 1100 3850
Wire Wire Line
	1000 3850 1250 3850
Connection ~ 4700 8150
Wire Wire Line
	4700 8150 4700 8400
Wire Wire Line
	5800 8450 6200 8450
Wire Wire Line
	5800 5700 5800 8450
Wire Wire Line
	4600 5700 5800 5700
Wire Wire Line
	5650 8350 6200 8350
Wire Wire Line
	5650 7150 5650 8350
Wire Wire Line
	3150 7150 5650 7150
Wire Wire Line
	3150 6000 3150 7150
Wire Wire Line
	3300 6000 3150 6000
Wire Wire Line
	3300 8150 3650 8150
Wire Wire Line
	3300 8050 3650 8050
Wire Wire Line
	4250 8050 4750 8050
Wire Wire Line
	4250 8150 4750 8150
Wire Wire Line
	4550 1250 5600 1250
Wire Wire Line
	5600 1250 5600 3050
Wire Wire Line
	5600 3050 6200 3050
Wire Wire Line
	4550 1350 5550 1350
Wire Wire Line
	5550 1350 5550 3150
Wire Wire Line
	5400 3150 5950 3150
Wire Wire Line
	3350 1500 3100 1500
Wire Wire Line
	3100 1500 3100 2450
Wire Wire Line
	3100 2450 5450 2450
Wire Wire Line
	5450 2450 5450 3800
Wire Wire Line
	5450 3800 6300 3800
Wire Wire Line
	6300 3800 6300 4250
Wire Wire Line
	3350 1600 3150 1600
Wire Wire Line
	3150 1600 3150 2400
Wire Wire Line
	3150 2400 5500 2400
Wire Wire Line
	5500 2400 5500 3850
Wire Wire Line
	5500 3850 6000 3850
Wire Wire Line
	6000 3850 6000 4350
Connection ~ 6000 4350
Wire Wire Line
	3350 1400 1650 1400
Wire Wire Line
	1650 1400 1650 7200
Connection ~ 1650 7200
Wire Wire Line
	4550 1450 4700 1450
Wire Wire Line
	4700 1450 4700 2300
Wire Wire Line
	4700 2300 1700 2300
Wire Wire Line
	1700 2300 1700 7300
Connection ~ 1700 7300
Wire Wire Line
	3300 2800 3300 2600
Wire Wire Line
	3300 2600 5200 2600
Wire Wire Line
	5200 2600 5200 850 
Wire Wire Line
	5200 850  5850 850 
Connection ~ 5850 850 
Wire Wire Line
	4600 2900 5250 2900
Wire Wire Line
	5250 2900 5250 900 
Wire Wire Line
	5250 900  5900 900 
Connection ~ 5900 900 
Wire Wire Line
	4600 3100 5300 3100
Wire Wire Line
	5300 3100 5300 1900
Wire Wire Line
	5300 1900 5750 1900
Connection ~ 5750 1900
Wire Wire Line
	3300 3200 2950 3200
Wire Wire Line
	2950 3200 2950 1850
Connection ~ 5800 1850
Wire Wire Line
	4600 3500 5350 3500
Wire Wire Line
	5350 3500 5350 2550
Connection ~ 5650 2550
Wire Wire Line
	4600 3700 5400 3700
Wire Wire Line
	5400 3700 5400 3150
Connection ~ 5550 3150
Wire Wire Line
	3300 3400 3000 3400
Wire Wire Line
	3000 3400 3000 2500
Wire Wire Line
	3000 2500 5750 2500
Wire Wire Line
	5750 2500 5750 2450
Connection ~ 5750 2450
Wire Wire Line
	3300 3800 3100 3800
Wire Wire Line
	3100 3800 3100 2650
Wire Wire Line
	3100 2650 5600 2650
Connection ~ 5600 2650
Wire Wire Line
	6300 4100 5950 4100
Wire Wire Line
	5950 4100 5950 6700
Wire Wire Line
	5950 6700 2700 6700
Wire Wire Line
	2700 6700 2700 4000
Wire Wire Line
	2700 4000 3300 4000
Connection ~ 6300 4100
Wire Wire Line
	3300 4400 2800 4400
Wire Wire Line
	2800 4400 2800 6600
Wire Wire Line
	2800 6600 5700 6600
Wire Wire Line
	5700 6600 5700 4800
Wire Wire Line
	5700 4800 6300 4800
Text Label 4650 4900 0    60   ~ 0
NTC
Text Label 4650 4700 0    60   ~ 0
EXT_SER_CLK_P
Text Label 4700 4300 0    60   ~ 0
CLK_P
Text Label 4700 4100 0    60   ~ 0
CMD_P
Text Label 4700 3700 0    60   ~ 0
D0_4_P
Text Label 4700 3500 0    60   ~ 0
D0_3_P
Text Label 4700 3100 0    60   ~ 0
D0_2_P
Text Label 4700 2900 0    60   ~ 0
D0_1_P
Text Label 3400 2600 0    60   ~ 0
D0_1_N
Text Label 3050 3200 0    60   ~ 0
D0_2_N
Text Label 3050 3400 0    60   ~ 0
D0_3_N
Text Label 3100 3800 0    60   ~ 0
D0_4_N
Text Label 2800 4000 0    60   ~ 0
CMD_N
Text Label 2950 4400 0    60   ~ 0
CLK_N
Text Label 3050 4600 0    60   ~ 0
EXT_SER_CLK_N
Text Label 2500 4800 0    60   ~ 0
NTC_RET
Text Label 6500 1300 0    60   ~ 0
D0_1_N
Text Label 6500 1400 0    60   ~ 0
D0_1_P
Text Label 6550 1850 0    60   ~ 0
D0_2_N
Text Label 6500 1950 0    60   ~ 0
D0_2_P
Text Label 6550 2450 0    60   ~ 0
D0_3_N
Text Label 6550 2550 0    60   ~ 0
D0_3_P
Text Label 6550 3050 0    60   ~ 0
D0_4_N
Text Label 6550 3150 0    60   ~ 0
D0_4_P
Text Label 6650 4250 0    60   ~ 0
CMD_N
Text Label 6650 4350 0    60   ~ 0
CMD_P
Text Label 6650 4800 0    60   ~ 0
CLK_N
Text Label 6650 4900 0    60   ~ 0
CLK_P
Text Label 6600 5350 0    60   ~ 0
EXT_SER_CLK_N
Text Label 6600 5450 0    60   ~ 0
EXT_SER_CLK_P
Wire Wire Line
	3800 2200 3800 2250
Wire Wire Line
	2000 2250 4100 2250
Wire Wire Line
	3900 2250 3900 2200
Wire Wire Line
	4000 2250 4000 2200
Connection ~ 3900 2250
Wire Wire Line
	4100 2250 4100 2200
Connection ~ 4000 2250
Wire Wire Line
	2000 2250 2000 2650
Connection ~ 3800 2250
$Comp
L R R4
U 1 1 5A6D221A
P 1900 2850
F 0 "R4" V 1980 2850 50  0000 C CNN
F 1 "R" V 1900 2850 50  0000 C CNN
F 2 "Resistors_SMD:R_0402" V 1830 2850 50  0001 C CNN
F 3 "" H 1900 2850 50  0001 C CNN
	1    1900 2850
	1    0    0    -1  
$EndComp
$Comp
L C C16
U 1 1 5A6D22A8
P 2100 2850
F 0 "C16" H 2125 2950 50  0000 L CNN
F 1 "C" H 2125 2750 50  0000 L CNN
F 2 "Capacitors_SMD:C_0402" H 2138 2700 50  0001 C CNN
F 3 "" H 2100 2850 50  0001 C CNN
	1    2100 2850
	1    0    0    -1  
$EndComp
Wire Wire Line
	1900 2650 2100 2650
Wire Wire Line
	2100 2650 2100 2700
Wire Wire Line
	1900 2650 1900 2700
Connection ~ 2000 2650
Wire Wire Line
	1900 3000 1900 3050
Wire Wire Line
	1900 3050 2100 3050
Wire Wire Line
	2100 3050 2100 3000
$Comp
L GND #PWR05
U 1 1 5A6D27B1
P 2000 3150
F 0 "#PWR05" H 2000 2900 50  0001 C CNN
F 1 "GND" H 2000 3000 50  0000 C CNN
F 2 "" H 2000 3150 50  0001 C CNN
F 3 "" H 2000 3150 50  0001 C CNN
	1    2000 3150
	1    0    0    -1  
$EndComp
Wire Wire Line
	2000 3150 2000 3050
Connection ~ 2000 3050
Text Label 2000 2500 0    60   ~ 0
SGND
NoConn ~ 4550 1750
NoConn ~ 3350 1700
$EndSCHEMATC
