(module DisplayPort (layer F.Cu) (tedit 5A6B9583)
  (fp_text reference REF** (at 4 -9) (layer F.SilkS)
    (effects (font (size 1 1) (thickness 0.15)))
  )
  (fp_text value DisplayPort (at 5.5 -33) (layer F.Fab)
    (effects (font (size 1 1) (thickness 0.15)))
  )
  (fp_line (start 12.2 -10) (end 12.2 -32) (layer F.SilkS) (width 0.15))
  (fp_line (start 11.18 -10) (end 11.18 -32) (layer F.SilkS) (width 0.15))
  (pad 20 smd rect (at -2.38 -16) (size 2.4 0.28) (layers F.Cu F.Paste F.Mask))
  (pad 19 smd rect (at -2.38 -16.5) (size 2.4 0.28) (layers F.Cu F.Paste F.Mask))
  (pad 18 smd rect (at -2.38 -17) (size 2.4 0.28) (layers F.Cu F.Paste F.Mask))
  (pad 17 smd rect (at -2.38 -17.5) (size 2.4 0.28) (layers F.Cu F.Paste F.Mask))
  (pad 16 smd rect (at -2.38 -18) (size 2.4 0.28) (layers F.Cu F.Paste F.Mask))
  (pad 15 smd rect (at -2.38 -18.5) (size 2.4 0.28) (layers F.Cu F.Paste F.Mask))
  (pad 14 smd rect (at -2.38 -19) (size 2.4 0.28) (layers F.Cu F.Paste F.Mask))
  (pad 13 smd rect (at -2.38 -19.5) (size 2.4 0.28) (layers F.Cu F.Paste F.Mask))
  (pad 12 smd rect (at -2.38 -20) (size 2.4 0.28) (layers F.Cu F.Paste F.Mask))
  (pad 11 smd rect (at -2.38 -20.5) (size 2.4 0.28) (layers F.Cu F.Paste F.Mask))
  (pad 1 connect rect (at -2.38 -25.5) (size 2.4 0.28) (layers F.Cu F.Mask))
  (pad 2 smd rect (at -2.38 -25) (size 2.4 0.28) (layers F.Cu F.Paste F.Mask))
  (pad 3 smd rect (at -2.38 -24.5) (size 2.4 0.28) (layers F.Cu F.Paste F.Mask))
  (pad 4 smd rect (at -2.38 -24) (size 2.4 0.28) (layers F.Cu F.Paste F.Mask))
  (pad 5 smd rect (at -2.38 -23.5) (size 2.4 0.28) (layers F.Cu F.Paste F.Mask))
  (pad 6 smd rect (at -2.38 -23) (size 2.4 0.28) (layers F.Cu F.Paste F.Mask))
  (pad 7 smd rect (at -2.38 -22.5) (size 2.4 0.28) (layers F.Cu F.Paste F.Mask))
  (pad 8 smd rect (at -2.38 -22) (size 2.4 0.28) (layers F.Cu F.Paste F.Mask))
  (pad 9 smd rect (at -2.38 -21.5) (size 2.4 0.28) (layers F.Cu F.Paste F.Mask))
  (pad 23 thru_hole oval (at 0.22 -12.75) (size 2.2 1.2) (drill oval 1.6 0.6) (layers *.Cu *.Mask))
  (pad 21 thru_hole oval (at 0.22 -29.25) (size 2.2 1.2) (drill oval 1.6 0.6) (layers *.Cu *.Mask))
  (pad 24 thru_hole oval (at 7 -12.75) (size 1.7 1.2) (drill oval 1.1 0.6) (layers *.Cu *.Mask))
  (pad ~ thru_hole circle (at 7.9 -21) (size 1.4 1.4) (drill 1.4) (layers *.Cu *.Mask))
  (pad 22 thru_hole oval (at 7 -29.25) (size 1.7 1.2) (drill oval 1.1 0.6) (layers *.Cu *.Mask))
  (pad 10 smd rect (at -2.38 -21) (size 2.4 0.28) (layers F.Cu F.Paste F.Mask))
)
